<svg xmlns="http://www.w3.org/2000/svg" width="14" height="14" viewBox="0 0 14 14">
    <g fill="none" fill-rule="nonzero">
        <path fill="#FFF" stroke="#B4B4B4" stroke-width=".5" d="M6.995 12.99a6.001 6.001 0 0 0 5.995-5.995A6.001 6.001 0 0 0 6.995 1 6.001 6.001 0 0 0 1 6.995a6.001 6.001 0 0 0 5.995 5.995z"/>
        <path fill="#B4B4B4" d="M6.093 8.914a.331.331 0 0 0 .446 0l2.369-2.206A.282.282 0 0 0 9 6.5a.282.282 0 0 0-.092-.207L6.539 4.087a.33.33 0 0 0-.446 0 .278.278 0 0 0 0 .415L8.238 6.5 6.093 8.498a.283.283 0 0 0 0 .416z"/>
    </g>
</svg>
