<svg xmlns="http://www.w3.org/2000/svg" width="74" height="69" viewBox="0 0 74 69">
    <path fill="#39619B" fill-rule="nonzero" d="M46.486 38.968V69H74V45.255c0-12.823-1.56-22.172-4.6-27.88C65.459 9.68 59.135 3.887 50.51 0L44.27 10.094c5.256 2.233 9.116 5.46 11.58 9.845 2.464 4.385 3.86 10.673 4.107 19.029h-13.47zm-44.186 0V69h27.514V45.255c0-12.823-1.56-22.172-4.6-27.88C21.272 9.68 14.948 3.887 6.324 0L0 10.094c5.256 2.15 9.117 5.46 11.58 9.845 2.464 4.385 3.86 10.673 4.107 19.029H2.3z"/>
</svg>
